simulation/qsim/trabalho_final.msim.vcd
$comment
	File created using the following command:
		vcd file trabalho_final.msim.vcd -direction
$end
$date
	Sat May 14 07:38:09 2022
$end
$version
	ModelSim Version 10.1d
$end
$timescale
	1ps
$end
$scope module trabalho_final_vlg_vec_tst $end
$var reg 1 ! CLK $end
$var reg 1 " Reset $end
$var reg 1 # Start_Stop $end
$var wire 1 $ Mone [6] $end
$var wire 1 % Mone [5] $end
$var wire 1 & Mone [4] $end
$var wire 1 ' Mone [3] $end
$var wire 1 ( Mone [2] $end
$var wire 1 ) Mone [1] $end
$var wire 1 * Mone [0] $end
$var wire 1 + Mtwo [6] $end
$var wire 1 , Mtwo [5] $end
$var wire 1 - Mtwo [4] $end
$var wire 1 . Mtwo [3] $end
$var wire 1 / Mtwo [2] $end
$var wire 1 0 Mtwo [1] $end
$var wire 1 1 Mtwo [0] $end
$var wire 1 2 Sone [6] $end
$var wire 1 3 Sone [5] $end
$var wire 1 4 Sone [4] $end
$var wire 1 5 Sone [3] $end
$var wire 1 6 Sone [2] $end
$var wire 1 7 Sone [1] $end
$var wire 1 8 Sone [0] $end
$var wire 1 9 Stwo [6] $end
$var wire 1 : Stwo [5] $end
$var wire 1 ; Stwo [4] $end
$var wire 1 < Stwo [3] $end
$var wire 1 = Stwo [2] $end
$var wire 1 > Stwo [1] $end
$var wire 1 ? Stwo [0] $end
$var wire 1 @ sampler $end
$scope module i1 $end
$var wire 1 A gnd $end
$var wire 1 B vcc $end
$var wire 1 C unknown $end
$var tri1 1 D devclrn $end
$var tri1 1 E devpor $end
$var tri1 1 F devoe $end
$var wire 1 G inst9|inst5|inst6|inst2~0_combout $end
$var wire 1 H inst5|inst1~q $end
$var wire 1 I inst5|inst14~0_combout $end
$var wire 1 J inst5|inst14~1_combout $end
$var wire 1 K CLK~input_o $end
$var wire 1 L CLK~inputclkctrl_outclk $end
$var wire 1 M Mone[6]~output_o $end
$var wire 1 N Mone[5]~output_o $end
$var wire 1 O Mone[4]~output_o $end
$var wire 1 P Mone[3]~output_o $end
$var wire 1 Q Mone[2]~output_o $end
$var wire 1 R Mone[1]~output_o $end
$var wire 1 S Mone[0]~output_o $end
$var wire 1 T Mtwo[6]~output_o $end
$var wire 1 U Mtwo[5]~output_o $end
$var wire 1 V Mtwo[4]~output_o $end
$var wire 1 W Mtwo[3]~output_o $end
$var wire 1 X Mtwo[2]~output_o $end
$var wire 1 Y Mtwo[1]~output_o $end
$var wire 1 Z Mtwo[0]~output_o $end
$var wire 1 [ Sone[6]~output_o $end
$var wire 1 \ Sone[5]~output_o $end
$var wire 1 ] Sone[4]~output_o $end
$var wire 1 ^ Sone[3]~output_o $end
$var wire 1 _ Sone[2]~output_o $end
$var wire 1 ` Sone[1]~output_o $end
$var wire 1 a Sone[0]~output_o $end
$var wire 1 b Stwo[6]~output_o $end
$var wire 1 c Stwo[5]~output_o $end
$var wire 1 d Stwo[4]~output_o $end
$var wire 1 e Stwo[3]~output_o $end
$var wire 1 f Stwo[2]~output_o $end
$var wire 1 g Stwo[1]~output_o $end
$var wire 1 h Stwo[0]~output_o $end
$var wire 1 i Reset~input_o $end
$var wire 1 j Start_Stop~input_o $end
$var wire 1 k inst5|inst11~0_combout $end
$var wire 1 l inst5|inst~q $end
$var wire 1 m inst5|inst35~0_combout $end
$var wire 1 n inst5|inst35~1_combout $end
$var wire 1 o inst5|inst4~q $end
$var wire 1 p inst8|inst~0_combout $end
$var wire 1 q inst8|inst2~0_combout $end
$var wire 1 r inst8|inst2~q $end
$var wire 1 s inst8|inst21~0_combout $end
$var wire 1 t inst8|inst5~0_combout $end
$var wire 1 u inst8|inst5~q $end
$var wire 1 v inst8|inst3~0_combout $end
$var wire 1 w inst8|inst3~q $end
$var wire 1 x inst8|inst4~0_combout $end
$var wire 1 y inst8|inst4~q $end
$var wire 1 z inst8|inst13~0_combout $end
$var wire 1 { inst8|inst19~combout $end
$var wire 1 | inst8|inst~q $end
$var wire 1 } inst8|inst9~0_combout $end
$var wire 1 ~ inst8|inst1~0_combout $end
$var wire 1 !! inst8|inst1~q $end
$var wire 1 "! inst|inst~0_combout $end
$var wire 1 #! inst|inst2~0_combout $end
$var wire 1 $! inst|inst2~q $end
$var wire 1 %! inst|inst22~0_combout $end
$var wire 1 &! inst|inst22~1_combout $end
$var wire 1 '! inst|inst5~0_combout $end
$var wire 1 (! inst|inst5~q $end
$var wire 1 )! inst|inst3~0_combout $end
$var wire 1 *! inst|inst3~q $end
$var wire 1 +! inst|inst4~0_combout $end
$var wire 1 ,! inst|inst4~q $end
$var wire 1 -! inst|inst19~0_combout $end
$var wire 1 .! inst|inst19~combout $end
$var wire 1 /! inst|inst~q $end
$var wire 1 0! inst|inst9~0_combout $end
$var wire 1 1! inst|inst1~0_combout $end
$var wire 1 2! inst|inst1~q $end
$var wire 1 3! inst9|inst5|inst5|inst2~0_combout $end
$var wire 1 4! inst9|inst5|inst4|inst2~0_combout $end
$var wire 1 5! inst9|inst6|inst4|inst2~0_combout $end
$var wire 1 6! inst9|inst6|inst6|inst2~0_combout $end
$var wire 1 7! inst9|inst6|inst5|inst2~0_combout $end
$var wire 1 8! inst2|inst|inst7~0_combout $end
$var wire 1 9! inst2|inst16|inst13~0_combout $end
$var wire 1 :! inst2|inst11|inst10~0_combout $end
$var wire 1 ;! inst2|inst12|inst10~0_combout $end
$var wire 1 <! inst2|inst13|inst4~0_combout $end
$var wire 1 =! inst2|inst14|inst6~0_combout $end
$var wire 1 >! inst2|inst19|inst6~0_combout $end
$var wire 1 ?! inst9|inst4|inst~0_combout $end
$var wire 1 @! inst9|inst6|inst3|inst2~0_combout $end
$var wire 1 A! inst9|inst5|inst3|inst2~0_combout $end
$var wire 1 B! inst1|inst|inst7~0_combout $end
$var wire 1 C! inst1|inst16|inst13~3_combout $end
$var wire 1 D! inst1|inst16|inst13~9_combout $end
$var wire 1 E! inst1|inst11|inst10~3_combout $end
$var wire 1 F! inst1|inst11|inst10~6_combout $end
$var wire 1 G! inst1|inst12|inst10~0_combout $end
$var wire 1 H! inst1|inst13|inst4~0_combout $end
$var wire 1 I! inst1|inst14|inst6~0_combout $end
$var wire 1 J! inst1|inst19|inst6~0_combout $end
$var wire 1 K! inst7|inst5|inst6|inst2~0_combout $end
$var wire 1 L! inst7|inst5|inst4|inst2~0_combout $end
$var wire 1 M! inst7|inst5|inst5|inst2~0_combout $end
$var wire 1 N! inst7|inst6|inst4|inst2~0_combout $end
$var wire 1 O! inst7|inst6|inst6|inst2~0_combout $end
$var wire 1 P! inst7|inst6|inst5|inst2~0_combout $end
$var wire 1 Q! inst4|inst|inst7~0_combout $end
$var wire 1 R! inst4|inst16|inst13~0_combout $end
$var wire 1 S! inst4|inst11|inst10~0_combout $end
$var wire 1 T! inst4|inst12|inst10~0_combout $end
$var wire 1 U! inst4|inst13|inst4~0_combout $end
$var wire 1 V! inst4|inst14|inst6~0_combout $end
$var wire 1 W! inst4|inst19|inst6~0_combout $end
$var wire 1 X! inst7|inst4|inst~0_combout $end
$var wire 1 Y! inst7|inst6|inst3|inst2~0_combout $end
$var wire 1 Z! inst7|inst5|inst3|inst2~0_combout $end
$var wire 1 [! inst3|inst|inst7~0_combout $end
$var wire 1 \! inst3|inst16|inst13~3_combout $end
$var wire 1 ]! inst3|inst16|inst13~9_combout $end
$var wire 1 ^! inst3|inst11|inst10~3_combout $end
$var wire 1 _! inst3|inst11|inst10~6_combout $end
$var wire 1 `! inst3|inst12|inst10~0_combout $end
$var wire 1 a! inst3|inst13|inst4~0_combout $end
$var wire 1 b! inst3|inst14|inst6~0_combout $end
$var wire 1 c! inst3|inst19|inst6~0_combout $end
$upscope $end
$upscope $end
$enddefinitions $end
#0
$dumpvars
0!
0"
0#
x*
x)
x(
x'
x&
x%
x$
x1
x0
x/
x.
x-
x,
x+
x8
x7
x6
x5
x4
x3
x2
x?
x>
x=
x<
x;
x:
x9
x@
0A
1B
xC
1D
1E
1F
xG
0H
xI
xJ
0K
xL
xM
xN
xO
xP
xQ
xR
xS
xT
xU
xV
xW
xX
xY
xZ
x[
x\
x]
x^
x_
x`
xa
xb
xc
xd
xe
xf
xg
xh
0i
0j
xk
0l
xm
xn
0o
xp
xq
0r
xs
xt
0u
xv
0w
xx
0y
xz
x{
0|
x}
x~
0!!
x"!
x#!
0$!
x%!
x&!
x'!
0(!
x)!
0*!
x+!
0,!
x-!
x.!
0/!
x0!
x1!
02!
x3!
x4!
x5!
x6!
x7!
x8!
x9!
x:!
x;!
x<!
x=!
x>!
x?!
x@!
xA!
xB!
xC!
xD!
xE!
xF!
xG!
xH!
xI!
xJ!
xK!
xL!
xM!
xN!
xO!
xP!
xQ!
xR!
xS!
xT!
xU!
xV!
xW!
xX!
xY!
xZ!
x[!
x\!
x]!
x^!
x_!
x`!
xa!
xb!
xc!
$end
#145
0L
#449
0-!
#450
0z
#471
0x
#481
1F!
#578
0}
#581
0s
#587
0p
#623
0?!
#663
0Z!
#664
0L!
#665
0%!
00!
#670
0c!
#682
0+!
#704
0)!
#711
0.!
#721
04!
#722
1D!
#726
0q
#731
0I
#733
1E!
#735
0{
#802
0&!
#816
0v
#839
0"!
#861
0#!
#869
0t
#901
1]!
#904
1C!
#915
0G
#916
0A!
#919
0J!
#929
0~
#935
0X!
#967
1_!
#973
0K!
#1003
01!
#1072
03!
#1133
0'!
#1180
0J
#1310
1^!
#1328
0M!
#1330
1\!
#1440
0k
#1512
0@!
#1514
06!
#1555
0Y!
#1557
0O!
#1565
17!
#1588
0m
#1629
1P!
#1676
0N!
#1705
05!
#1899
08!
#1902
0;!
#1908
19!
#1909
0n
#1911
1<!
#1914
1:!
#2021
1=!
#2112
1B!
#2117
1I!
#2118
1H!
#2119
0G!
#2357
1a!
#2359
0`!
#2360
1[!
1b!
#2373
1V!
#2379
0>!
#2380
0T!
#2384
0Q!
#2389
1S!
#2391
1U!
#2394
1R!
#2716
0W!
#3176
0h
0?
#3429
0Z
01
#3435
1c
1:
#3687
1d
1;
#3779
1U
1,
#4303
1V
1-
#4424
1P
1'
#4429
1N
1%
#4573
1R
1)
#4576
1W
1.
#4582
1O
1&
#4650
1X
1/
#4796
1M
1$
#4821
1e
1<
#4823
0S
0*
#4883
1b
19
#4891
1g
1>
#4901
1[
12
#4934
1`
17
#4944
1\
13
#4953
1Q
1(
#4991
1T
1+
#5107
1Y
10
#5137
1^
15
#5156
1]
14
#5227
1_
16
#5314
0a
08
#6174
1f
1=
#500000
1!
0@
#500775
1K
#500938
1L
#1000000
0!
1@
#1000936
0K
#1001081
0L
#1500000
1!
0@
#1500775
1K
#1500938
1L
#2000000
0!
1@
#2000936
0K
#2001081
0L
#2500000
1!
0@
#2500775
1K
#2500938
1L
#3000000
0!
1@
#3000936
0K
#3001081
0L
#3500000
1!
0@
#3500775
1K
#3500938
1L
#4000000
0!
1@
#4000936
0K
#4001081
0L
#4500000
1!
0@
#4500775
1K
#4500938
1L
#5000000
0!
1@
#5000936
0K
#5001081
0L
#5500000
1!
0@
#5500775
1K
#5500938
1L
#6000000
1#
0!
1@
#6000699
1j
#6000936
0K
#6001081
0L
#6002336
1m
#6002641
1n
#6500000
1!
0@
#6500775
1K
#6500938
1L
#6502627
1o
#6503268
1p
#7000000
0!
1@
#7000936
0K
#7001081
0L
#7500000
1!
0@
#7500775
1K
#7500938
1L
#7502627
1|
#7502996
0p
#7503128
1}
#7503454
1~
#7503759
1T!
#7503766
1Q!
#7503778
0U!
#7503790
0V!
#7506294
0`
07
#7506341
0[
02
#7506537
0^
05
#7506556
0_
06
#8000000
0!
1@
#8000936
0K
#8001081
0L
#8500000
1!
0@
#8500775
1K
#8500938
1L
#8502627
0|
1!!
#8502980
1p
#8502996
0~
#8503205
0}
#8503254
1q
#8503455
1O!
#8503556
0q
#8503566
1~
#8503829
1U!
#8503841
0T!
#8503846
0Q!
1V!
#8504246
0V!
#8504249
1W!
#8504253
0S!
#8506363
1[
12
#8506598
1^
15
#8506665
1_
16
#8506896
1a
18
#8506954
0]
04
#9000000
0#
0!
1@
#9000862
0j
#9000936
0K
#9001081
0L
#9002382
1I
#9002450
0m
#9002771
0n
#9002824
1J
#9500000
1!
0@
#9500775
1K
#9500938
1L
#9502627
1H
0o
1|
#9503341
1}
#9503354
0p
#9503657
0~
#9503667
1q
#9503746
1S!
#9503778
0U!
#9506513
1]
14
#9506556
0_
06
#10000000
0!
1@
#10000936
0K
#10001081
0L
#10500000
1!
0@
#10500775
1K
#10500938
1L
#10502627
1r
0|
0!!
#10502980
1~
1p
#10502996
0q
#10503201
0\!
#10503205
0}
#10503349
1q
#10503472
1K!
#10503487
0^!
#10503550
0O!
#10503556
0~
#10503829
1U!
#10503836
0S!
#10504079
0P!
#10504364
0W!
#10504365
1S!
#10504366
1V!
#10504848
0U!
#10504855
1W!
#10504858
1T!
#10504861
1Q!
#10506927
1`
17
#10507436
0[
02
#10507636
0^
05
#11000000
0!
1@
#11000936
0K
#11001081
0L
#11500000
1!
0@
#11500775
1K
#11500938
1L
#11502627
1|
#11502996
0p
#11503128
1}
#11503454
1~
#11503775
0T!
#11503782
0Q!
0R!
#11506274
0\
03
#11506299
1[
12
#11506532
1^
15
#12000000
0!
1@
#12000936
0K
#12001081
0L
#12500000
1!
0@
#12500775
1K
#12500938
1L
#12502627
0|
1!!
#12502980
1p
#12502996
0~
#12503031
1x
#12503205
0}
#12503235
1s
#12503258
0q
#12503455
1O!
#12503558
0s
#12503566
1q
1~
#12503810
0x
#12503825
1T!
#12503829
1R!
#12503830
1Q!
#12504249
0Q!
0R!
#12504250
0T!
#12504254
1U!
#12507090
1_
16
#13000000
0!
1@
#13000936
0K
#13001081
0L
#13500000
1!
0@
#13500775
1K
#13500938
1L
#13502627
1|
#13502996
0p
#13503128
1}
#13503444
0q
0~
#13503456
1s
#13503686
1x
#13503759
1T!
#13503765
1R!
#13503778
0U!
#13503782
0W!
#13503790
0V!
#13506294
0`
07
#13506315
1\
13
#13506380
0a
08
#13506537
0^
05
#13506556
0_
06
#14000000
0!
1@
#14000936
0K
#14001081
0L
#14500000
1!
0@
#14500775
1K
#14500938
1L
#14502627
0r
1y
0|
0!!
#14502980
1~
1p
1q
#14503205
0}
#14503208
0s
#14503293
1\!
#14503353
0q
#14503546
0K!
#14503550
0O!
#14503556
0~
#14503817
1W!
#14503829
1U!
#14503841
0T!
#14503846
1V!
0R!
#14503857
1M!
#14503879
0\!
#14504180
1N!
#14504202
1P!
#14504361
1Q!
#14504363
1R!
#14504366
0U!
#14504370
1T!
#14504964
1U!
#14505195
0Q!
0T!
#14506407
1`
17
#14506464
1a
18
#14507800
1_
16
#14507952
1^
15
#15000000
0!
1@
#15000936
0K
#15001081
0L
#15500000
1!
0@
#15500775
1K
#15500938
1L
#15502627
1|
#15502996
0p
#15503128
1}
#15503454
1~
#15503778
0U!
#15506556
0_
06
#16000000
0!
1@
#16000936
0K
#16001081
0L
#16500000
1!
0@
#16500775
1K
#16500938
1L
#16502627
0|
1!!
#16502980
1p
#16502996
0~
#16503205
0}
#16503254
1q
#16503403
1Y!
#16503422
0N!
#16503556
0q
#16503566
1~
#16503829
1U!
#16504188
0b!
#16504189
0a!
#16504191
1`!
0[!
#16504462
0W!
#16506651
0b
09
#16506659
0g
0>
#16506665
1_
16
#16506724
0e
0<
#16507060
0a
08
#16508062
0f
0=
#17000000
0!
1@
#17000936
0K
#17001081
0L
#17500000
1!
0@
#17500775
1K
#17500938
1L
#17502627
1|
#17502996
0p
#17503128
1}
#17503444
0~
#17503454
1q
#17503759
1T!
#17503766
1Q!
#17503778
0U!
#17503790
0V!
#17506294
0`
07
#17506341
0[
02
#17506537
0^
05
#17506556
0_
06
#18000000
0!
1@
#18000936
0K
#18001081
0L
#18500000
1!
0@
#18500775
1K
#18500938
1L
#18502627
1r
0|
0!!
#18502980
1~
1p
#18502996
0q
#18503205
0}
#18503349
1q
#18503472
1K!
#18503486
0Y!
#18503527
1N!
#18503556
0~
#18503829
1U!
#18503841
0T!
#18503846
0Q!
1V!
#18504001
1Y!
#18504004
1O!
#18504011
0N!
#18504795
0V!
#18504798
1W!
#18504802
0S!
#18506363
1[
12
#18506598
1^
15
#18506665
1_
16
#18507445
1a
18
#18507503
0]
04
#19000000
0!
1@
#19000936
0K
#19001081
0L
#19500000
1!
0@
#19500775
1K
#19500938
1L
#19502627
1|
#19502996
0p
#19503128
1}
#19503454
1~
#19503746
1S!
#19503778
0U!
#19506513
1]
14
#19506556
0_
06
#20000000
0!
1@
#20000936
0K
#20001081
0L
#20500000
1!
0@
#20500775
1K
#20500938
1L
#20502627
0|
1!!
#20502980
1p
#20502996
0~
#20503021
0x
#20503204
1^!
#20503205
0}
#20503235
1s
#20503258
0q
#20503467
0O!
0P!
#20503546
1t
#20503558
0s
#20503566
1q
1~
#20503811
1x
#20503829
1U!
#20503836
0S!
#20503888
0t
#20504236
0U!
#20504246
1T!
#20504249
1Q!
#20504282
1S!
#20504283
1V!
#20506824
0[
02
#20506844
1`
17
#20507024
0^
05
#21000000
0!
1@
#21000936
0K
#21001081
0L
#21500000
1!
0@
#21500775
1K
#21500938
1L
#21502627
1|
#21502996
0p
#21503128
1}
#21503444
0q
0~
#21503456
1s
#21503685
0x
#21503767
1t
#21503775
0T!
#21503782
0Q!
0R!
#21506274
0\
03
#21506299
1[
12
#21506532
1^
15
#22000000
0!
1@
#22000936
0K
#22001081
0L
#22500000
1!
0@
#22500775
1K
#22500938
1L
#22502627
0r
1u
0y
0|
0!!
#22502980
1~
1p
1q
#22502996
0t
#22503205
0}
#22503208
0s
#22503227
1Z!
#22503233
1c!
#22503265
0^!
#22503353
0q
#22503464
0M!
#22503492
1t
#22503538
1O!
1P!
#22503556
0~
#22503585
0_!
#22503662
0K!
#22503816
0Y!
#22503817
0O!
0P!
#22503825
1T!
#22503829
1R!
#22503830
1Q!
#22503888
0c!
#22503936
1L!
#22503937
1^!
#22503939
0`!
#22503945
1[!
#22503946
0Z!
#22503957
1\!
#22504240
1_!
#22504318
1P!
#22504618
1a!
#22504686
1b!
#22504737
0P!
#22504738
1O!
#22504740
1Y!
#22505525
0b!
#22505526
0a!
#22505528
1`!
0[!
#22505532
0Q!
0R!
#22505533
0T!
#22505537
1U!
#22508373
1_
16
#23000000
0!
1@
#23000936
0K
#23001081
0L
#23500000
1!
0@
#23500775
1K
#23500938
1L
#23502627
1|
#23502996
0p
#23503128
1}
#23503454
1~
#23503759
1T!
#23503765
1R!
#23503778
0U!
#23503782
0W!
#23503790
0V!
#23506294
0`
07
#23506315
1\
13
#23506380
0a
08
#23506537
0^
05
#23506556
0_
06
#24000000
0!
1@
#24000936
0K
#24001081
0L
#24500000
1!
0@
#24500775
1K
#24500938
1L
#24502627
0|
1!!
#24502980
1p
#24502996
0~
#24503205
0}
#24503254
1q
#24503444
1N!
#24503455
1P!
#24503467
0O!
#24503556
0q
#24503566
1~
#24503817
1W!
#24503829
1U!
#24503841
0T!
#24503846
1V!
0R!
#24504280
1R!
#24506407
1`
17
#24506464
1a
18
#24506598
1^
15
#24506665
1_
16
#25000000
0!
1@
#25000936
0K
#25001081
0L
#25500000
1!
0@
#25500775
1K
#25500938
1L
#25502627
1|
#25502996
0p
#25503128
1}
#25503444
0~
#25503454
1q
#25503778
0U!
#25506556
0_
06
#26000000
0!
1@
#26000936
0K
#26001081
0L
#26500000
1!
0@
#26500775
1K
#26500938
1L
#26502627
1r
0|
0!!
#26502980
1~
1p
#26502996
0q
#26503201
0\!
#26503205
0}
#26503349
1q
#26503422
1c!
#26503426
1Z!
#26503453
0L!
#26503487
0^!
#26503505
0N!
#26503538
1O!
#26503550
0P!
#26503556
0~
#26503807
0_!
#26503829
1U!
#26504138
0`!
#26504144
1[!
#26504264
0O!
#26504267
1P!
#26504268
0Y!
#26504322
0R!
#26505021
0W!
#26505070
1a!
#26505077
1R!
#26505997
1h
1?
#26506455
0d
0;
#26506600
1e
1<
#26506665
1_
16
#26506667
1b
19
#26507619
0a
08
#26508887
1f
1=
#27000000
0!
1@
#27000936
0K
#27001081
0L
#27500000
1!
0@
#27500775
1K
#27500938
1L
#27502627
1|
#27502996
0p
#27503128
1}
#27503454
1~
#27503759
1T!
#27503766
1Q!
#27503778
0U!
#27503790
0V!
#27506294
0`
07
#27506341
0[
02
#27506537
0^
05
#27506556
0_
06
#28000000
0!
1@
#28000936
0K
#28001081
0L
#28500000
1!
0@
#28500775
1K
#28500938
1L
#28502627
0|
1!!
#28502980
1p
#28502996
0~
#28503031
1x
#28503205
0}
#28503235
1s
#28503258
0q
#28503455
1O!
#28503558
0s
#28503566
1q
1~
#28503810
0x
#28503829
1U!
#28503841
0T!
#28503846
0Q!
1V!
#28504246
0V!
#28504249
1W!
#28504253
0S!
#28506363
1[
12
#28506598
1^
15
#28506665
1_
16
#28506896
1a
18
#28506954
0]
04
#29000000
0!
1@
#29000936
0K
#29001081
0L
#29500000
1!
0@
#29500775
1K
#29500938
1L
#29502627
1|
#29502996
0p
#29503128
1}
#29503444
0q
0~
#29503456
1s
#29503686
1x
#29503746
1S!
#29503778
0U!
#29506513
1]
14
#29506556
0_
06
#30000000
0!
1@
#30000936
0K
#30001081
0L
#30500000
1!
0@
#30500775
1K
#30500938
1L
#30502627
0r
1y
0|
0!!
#30502980
1~
1p
1q
#30503205
0}
#30503208
0s
#30503293
1\!
#30503353
0q
#30503408
1v
#30503539
0v
#30503550
0O!
#30503556
0~
#30503604
1K!
#30503829
1U!
#30503836
0S!
#30503879
0\!
#30504211
0P!
#30504364
0W!
#30504365
1S!
#30504366
1V!
#30504980
0U!
#30504987
1W!
#30504990
1T!
#30504993
1Q!
#30506927
1`
17
#30507568
0[
02
#30507768
0^
05
#31000000
0!
1@
#31000936
0K
#31001081
0L
#31500000
1!
0@
#31500775
1K
#31500938
1L
#31502627
1|
#31502996
0p
#31503128
1}
#31503454
1~
#31503775
0T!
#31503782
0Q!
0R!
#31506274
0\
03
#31506299
1[
12
#31506532
1^
15
#32000000
0!
1@
#32000936
0K
#32001081
0L
#32500000
1!
0@
#32500775
1K
#32500938
1L
#32502627
0|
1!!
#32502980
1p
#32502996
0~
#32503205
0}
#32503254
1q
#32503455
1O!
#32503556
0q
#32503566
1~
#32503825
1T!
#32503829
1R!
#32503830
1Q!
#32504249
0Q!
0R!
#32504250
0T!
#32504254
1U!
#32507090
1_
16
#33000000
0!
1@
#33000936
0K
#33001081
0L
#33500000
1!
0@
#33500775
1K
#33500938
1L
#33502627
1|
#33502996
0p
#33503128
1}
#33503444
0~
#33503454
1q
#33503759
1T!
#33503765
1R!
#33503778
0U!
#33503782
0W!
#33503790
0V!
#33506294
0`
07
#33506315
1\
13
#33506380
0a
08
#33506537
0^
05
#33506556
0_
06
#34000000
0!
1@
#34000936
0K
#34001081
0L
#34500000
1!
0@
#34500775
1K
#34500938
1L
#34502627
1r
0|
0!!
#34502980
1~
1p
#34502996
0q
#34503205
0}
#34503349
1q
#34503449
1M!
#34503466
0K!
#34503550
0O!
#34503556
0~
#34503777
1P!
#34503817
1W!
#34503829
1U!
#34503841
0T!
#34503846
1V!
0R!
#34504078
1N!
#34504361
1Q!
#34504363
1R!
#34504366
0U!
#34504370
1T!
#34504528
0T!
#34504531
0W!
#34504532
0Q!
#34504539
1U!
#34505074
1W!
#34506407
1`
17
#34506598
1^
15
#34507375
1_
16
#34507721
1a
18
#35000000
0!
1@
#35000936
0K
#35001081
0L
#35500000
1!
0@
#35500775
1K
#35500938
1L
#35502627
1|
#35502996
0p
#35503128
1}
#35503454
1~
#35503778
0U!
#35506556
0_
06
#36000000
0!
1@
#36000936
0K
#36001081
0L
#36500000
1!
0@
#36500775
1K
#36500938
1L
#36502627
0|
1!!
#36502980
1p
#36502996
0~
#36503021
0x
#36503204
1^!
#36503205
0}
#36503235
1s
#36503258
0q
#36503403
1Y!
#36503422
0N!
#36503507
1_!
#36503536
0t
#36503547
1v
#36503558
0s
#36503566
1q
1~
#36503811
1x
#36503829
1U!
#36503889
0v
#36503898
1t
#36504189
0a!
#36504462
0W!
#36506227
1d
1;
#36506665
1_
16
#36507060
0a
08
#36508062
0f
0=
#37000000
0!
1@
#37000936
0K
#37001081
0L
#37500000
1!
0@
#37500775
1K
#37500938
1L
#37502627
1|
#37502996
0p
#37503128
1}
#37503444
0q
0~
#37503456
1s
#37503685
0x
#37503757
0t
#37503759
1T!
#37503766
1Q!
#37503768
1v
#37503778
0U!
#37503790
0V!
#37506294
0`
07
#37506341
0[
02
#37506537
0^
05
#37506556
0_
06
#38000000
0!
1@
#38000936
0K
#38001081
0L
#38500000
1!
0@
#38500775
1K
#38500938
1L
#38502627
0r
0u
1w
0y
0|
0!!
#38502980
1~
1p
1t
1q
#38503205
0}
#38503208
0s
#38503265
0^!
#38503290
0Z!
#38503353
0q
#38503457
1X!
#38503486
0Y!
#38503496
0t
#38503527
1N!
#38503541
0M!
#38503556
0~
#38503672
1K!
#38503829
1U!
#38503841
0T!
#38503846
0Q!
1V!
#38503889
0N!
#38503934
1Z!
#38503937
1^!
#38503942
1M!
#38503946
0X!
#38503957
1\!
#38504017
0[!
#38504033
1`!
#38504268
1Y!
#38504270
1O!
#38504288
1a!
#38504290
0`!
#38504291
1[!
1b!
#38504643
0b!
#38505054
0a!
#38505061
0V!
#38505064
1W!
#38505068
0S!
#38506363
1[
12
#38506598
1^
15
#38506665
1_
16
#38507711
1a
18
#38507769
0]
04
#39000000
0!
1@
#39000936
0K
#39001081
0L
#39500000
1!
0@
#39500775
1K
#39500938
1L
#39502627
1|
#39502996
0p
#39503128
1}
#39503454
1~
#39503746
1S!
#39503778
0U!
#39506513
1]
14
#39506556
0_
06
#40000000
0!
1@
#40000936
0K
#40001081
0L
#40500000
1!
0@
#40500775
1K
#40500938
1L
#40502627
0|
1!!
#40502980
1p
#40502996
0~
#40503205
0}
#40503254
1q
#40503467
0O!
0P!
#40503556
0q
#40503566
1~
#40503829
1U!
#40503836
0S!
#40504236
0U!
#40504246
1T!
#40504249
1Q!
#40504282
1S!
#40504283
1V!
#40506824
0[
02
#40506844
1`
17
#40507024
0^
05
#41000000
0!
1@
#41000936
0K
#41001081
0L
#41500000
1!
0@
#41500775
1K
#41500938
1L
#41502627
1|
#41502996
0p
#41503128
1}
#41503444
0~
#41503454
1q
#41503775
0T!
#41503782
0Q!
0R!
#41506274
0\
03
#41506299
1[
12
#41506532
1^
15
#42000000
0!
1@
#42000936
0K
#42001081
0L
#42500000
1!
0@
#42500775
1K
#42500938
1L
#42502627
1r
0|
0!!
#42502980
1~
1p
#42502996
0q
#42503201
0\!
#42503205
0}
#42503349
1q
#42503460
0M!
#42503463
1L!
#42503466
0K!
#42503487
0^!
#42503538
1O!
1P!
#42503556
0~
#42503812
0Y!
#42503813
0O!
#42503825
1T!
#42503829
1R!
#42503830
1Q!
#42504264
0P!
#42504265
1O!
#42504267
1Y!
#42504289
0T!
#42504292
0W!
#42504293
0Q!
#42504300
1U!
#42505036
0R!
#42505059
1W!
#42507136
1_
16
#43000000
0!
1@
#43000936
0K
#43001081
0L
#43500000
1!
0@
#43500775
1K
#43500938
1L
#43502627
1|
#43502996
0p
#43503128
1}
#43503454
1~
#43503759
1T!
#43503765
1R!
#43503778
0U!
#43503782
0W!
#43503790
0V!
#43506294
0`
07
#43506315
1\
13
#43506380
0a
08
#43506537
0^
05
#43506556
0_
06
#44000000
0!
1@
#44000936
0K
#44001081
0L
#44500000
1!
0@
#44500775
1K
#44500938
1L
#44502627
0|
1!!
#44502980
1p
#44502996
0~
#44503031
1x
#44503205
0}
#44503235
1s
#44503258
0q
#44503444
1N!
#44503455
1P!
#44503467
0O!
#44503558
0s
#44503566
1q
1~
#44503810
0x
#44503817
1W!
#44503829
1U!
#44503841
0T!
#44503846
1V!
0R!
#44504280
1R!
#44506407
1`
17
#44506464
1a
18
#44506598
1^
15
#44506665
1_
16
#45000000
0!
1@
#45000936
0K
#45001081
0L
#45500000
1!
0@
#45500775
1K
#45500938
1L
#45502627
1|
#45502996
0p
#45503128
1}
#45503444
0q
0~
#45503456
1s
#45503686
1x
#45503778
0U!
#45506556
0_
06
#46000000
0!
1@
#46000936
0K
#46001081
0L
#46500000
1!
0@
#46500775
1K
#46500938
1L
#46502627
0r
1y
0|
0!!
#46502980
1~
1p
1q
#46503205
0}
#46503208
0s
#46503293
1\!
#46503353
0q
#46503505
0N!
#46503536
0L!
#46503538
1O!
#46503550
0P!
#46503556
0~
#46503829
1U!
#46503835
1X!
#46503864
0Z!
#46503879
0\!
#46504322
0R!
#46504347
0O!
#46504350
1P!
#46504351
0Y!
#46504604
1b!
#46505104
0W!
#46505154
0[!
#46505156
1`!
#46505160
1R!
#46506665
1_
16
#46507135
1g
1>
#46507614
0b
09
#46507689
0e
0<
#46507702
0a
08
#47000000
0!
1@
#47000936
0K
#47001081
0L
#47500000
1!
0@
#47500775
1K
#47500938
1L
#47502627
1|
#47502996
0p
#47503128
1}
#47503454
1~
#47503759
1T!
#47503766
1Q!
#47503778
0U!
#47503790
0V!
#47506294
0`
07
#47506341
0[
02
#47506537
0^
05
#47506556
0_
06
#48000000
0!
1@
#48000936
0K
#48001081
0L
#48500000
1!
0@
#48500775
1K
#48500938
1L
#48502627
0|
1!!
#48502980
1p
#48502996
0~
#48503205
0}
#48503254
1q
#48503455
1O!
#48503556
0q
#48503566
1~
#48503829
1U!
#48503841
0T!
#48503846
0Q!
1V!
#48504246
0V!
#48504249
1W!
#48504253
0S!
#48506363
1[
12
#48506598
1^
15
#48506665
1_
16
#48506896
1a
18
#48506954
0]
04
#49000000
0!
1@
#49000936
0K
#49001081
0L
#49500000
1!
0@
#49500775
1K
#49500938
1L
#49502627
1|
#49502996
0p
